104
-9.0 -17.9
3.0 19.5
-25.0 -11.2
-11.3 -31.1
22.7 -1.5
-9.5 26.9
16.4 -35.3
13.1 -22.2
-1.5 6.0
-3.8 10.7
19.0 32.3
30.1 34.4
34.7 19.3
-3.8 31.3
-38.7 0.8
-6.4 20.4
-22.1 -24.5
-46.0 -1.5
9.4 -29.0
13.7 2.4
-0.9 -17.3
22.2 28.1
15.7 16.7
19.0 -42.2
28.4 -6.1
-9.7 -45.0
-41.0 28.6
31.1 3.2
44.7 -8.8
-23.5 -27.6
-4.5 8.1
-10.7 -25.1
37.2 -28.3
-28.0 -12.7
-14.5 -36.3
-12.7 -22.0
-6.1 42.9
22.4 42.4
-35.9 0.5
-28.0 -21.6
-16.6 26.4
8.6 -44.9
35.3 -25.9
-5.7 30.5
28.9 33.0
15.7 37.9
-5.3 -37.0
-26.6 40.7
30.9 14.5
-22.8 -0.3
-2.2 -38.5
-34.0 -14.4
23.9 -40.8
44.5 -15.3
19.3 38.6
32.3 -16.8
-5.7 26.9
-22.9 -22.2
5.7 -28.3
-44.7 -8.1
-29.1 34.9
41.2 -12.3
-13.2 -32.2
35.4 -6.5
-35.0 27.2
30.8 -18.3
7.9 -4.7
8.9 26.2
35.0 3.9
-16.1 18.6
5.4 -31.3
-25.7 22.7
22.8 -3.3
12.5 -23.5
11.7 -4.5
-16.3 -9.9
-38.4 -17.1
-40.4 -12.1
33.3 20.5
15.6 -0.8
-39.9 -17.4
-10.3 19.7
-28.0 -16.9
-39.1 9.2
-3.0 5.3
0.7 -38.5
-6.8 -44.6
5.9 -15.0
-34.5 12.3
-28.4 36.6
37.1 9.6
-9.8 -27.8
47.0 15.6
18.8 -42.0
-35.4 -2.5
-40.6 -18.0
-15.5 -2.6
-19.6 23.6
36.1 32.2
0.1 28.3
39.6 18.3
-43.0 -1.4
1.0 -6.4
24.6 15.4
111
2.1 -4.3
-11.5 -28.2
-20.3 -14.6
21.6 37.9
48.1 -7.7
27.5 16.1
20.9 -38.3
-30.9 17.3
-10.8 -34.2
11.0 -20.2
-40.6 -11.6
29.4 0.0
4.9 34.3
-12.7 26.2
26.7 10.1
-36.6 -22.9
2.0 -26.7
5.1 18.3
11.9 -47.9
14.4 37.1
6.2 3.9
-9.4 4.1
-40.3 -26.5
-36.7 15.1
-31.1 -19.9
25.7 -36.0
39.2 -30.9
-17.3 17.1
-6.2 -47.4
-10.7 3.1
-12.8 5.5
-28.6 20.7
-18.8 27.1
-29.2 -28.6
28.0 25.1
23.0 8.5
-21.0 15.6
28.6 -10.7
48.1 10.4
-44.5 -9.1
-41.7 -27.1
-11.5 -20.8
-4.2 -7.4
18.1 43.7
33.9 -34.1
-12.4 -35.7
-24.1 -28.1
36.9 28.1
20.4 19.5
-26.4 13.2
40.2 -6.6
8.9 -27.6
8.8 1.2
-22.0 39.1
14.0 19.0
-0.3 -39.4
46.4 -13.8
46.4 -16.9
-41.7 -8.8
17.1 -32.2
33.5 -18.9
-28.8 -6.7
8.9 30.9
35.8 24.1
23.0 25.0
-10.1 -30.7
18.3 46.1
16.4 0.4
2.5 -38.8
-18.1 23.6
27.5 -12.5
5.8 -3.2
-46.8 -1.0
-23.5 -33.5
-43.0 3.0
-3.7 -18.5
21.4 25.9
2.4 -14.7
-17.2 28.3
-12.8 -40.0
-12.7 8.2
15.2 38.8
-48.2 -12.2
-7.9 18.3
22.4 -1.1
-3.5 -46.4
5.5 -30.8
-28.5 -17.8
21.2 -38.4
3.8 40.5
10.7 -21.6
44.1 4.6
-3.7 -38.7
-46.7 17.5
11.6 -43.3
6.0 44.9
-43.4 -22.1
45.3 3.2
15.9 2.1
38.9 -0.2
-21.2 -7.3
-3.7 26.1
15.5 45.9
-30.2 -24.0
-22.8 -30.1
-21.8 22.8
-14.2 -25.6
35.9 -20.9
0.4 39.0
36.3 -4.4
43.9 7.9